\relax 
\providecommand\hyper@newdestlabel[2]{}
\providecommand\HyperFirstAtBeginDocument{\AtBeginDocument}
\HyperFirstAtBeginDocument{\ifx\hyper@anchor\@undefined
\global\let\oldcontentsline\contentsline
\gdef\contentsline#1#2#3#4{\oldcontentsline{#1}{#2}{#3}}
\global\let\oldnewlabel\newlabel
\gdef\newlabel#1#2{\newlabelxx{#1}#2}
\gdef\newlabelxx#1#2#3#4#5#6{\oldnewlabel{#1}{{#2}{#3}}}
\AtEndDocument{\ifx\hyper@anchor\@undefined
\let\contentsline\oldcontentsline
\let\newlabel\oldnewlabel
\fi}
\fi}
\global\let\hyper@last\relax 
\gdef\HyperFirstAtBeginDocument#1{#1}
\providecommand\HyField@AuxAddToFields[1]{}
\providecommand\HyField@AuxAddToCoFields[2]{}
\catcode `"\active 
\select@language{ngerman}
\@writefile{toc}{\select@language{ngerman}}
\@writefile{lof}{\select@language{ngerman}}
\@writefile{lot}{\select@language{ngerman}}
\@writefile{nav}{\headcommand {\slideentry {0}{0}{1}{1/1}{}{0}}}
\@writefile{nav}{\headcommand {\beamer@framepages {1}{1}}}
\@writefile{nav}{\headcommand {\slideentry {0}{0}{2}{2/2}{}{0}}}
\@writefile{nav}{\headcommand {\beamer@framepages {2}{2}}}
\@writefile{toc}{\beamer@sectionintoc {1}{Einf\"uhrung}{3}{0}{1}}
\@writefile{nav}{\headcommand {\sectionentry {1}{Einf\"uhrung}{3}{Einf\"uhrung}{0}}}
\@writefile{nav}{\headcommand {\beamer@sectionpages {1}{2}}}
\@writefile{nav}{\headcommand {\beamer@subsectionpages {1}{2}}}
\@writefile{toc}{\beamer@sectionintoc {2}{Supervised Learning}{3}{0}{2}}
\@writefile{nav}{\headcommand {\sectionentry {2}{Supervised Learning}{3}{Supervised Learning}{0}}}
\@writefile{nav}{\headcommand {\beamer@sectionpages {3}{2}}}
\@writefile{nav}{\headcommand {\beamer@subsectionpages {3}{2}}}
\@writefile{nav}{\headcommand {\slideentry {2}{0}{1}{3/8}{}{0}}}
\@writefile{nav}{\headcommand {\beamer@framepages {3}{8}}}
\@writefile{nav}{\headcommand {\slideentry {2}{0}{2}{9/14}{}{0}}}
\@writefile{nav}{\headcommand {\beamer@framepages {9}{14}}}
\@writefile{nav}{\headcommand {\slideentry {2}{0}{3}{15/15}{}{0}}}
\@writefile{nav}{\headcommand {\beamer@framepages {15}{15}}}
\@writefile{nav}{\headcommand {\slideentry {2}{0}{4}{16/16}{}{0}}}
\@writefile{nav}{\headcommand {\beamer@framepages {16}{16}}}
\@writefile{nav}{\headcommand {\slideentry {2}{0}{5}{17/17}{}{0}}}
\@writefile{nav}{\headcommand {\beamer@framepages {17}{17}}}
\@writefile{toc}{\beamer@subsectionintoc {2}{1}{Datenmodellierung}{18}{0}{2}}
\@writefile{nav}{\headcommand {\beamer@subsectionentry {0}{2}{1}{18}{Datenmodellierung}}\headcommand {\beamer@subsectionpages {3}{17}}}
\@writefile{nav}{\headcommand {\slideentry {2}{1}{1}{18/18}{Datenmodellierung}{0}}}
\@writefile{nav}{\headcommand {\beamer@framepages {18}{18}}}
\@writefile{nav}{\headcommand {\slideentry {2}{1}{2}{19/20}{Datenmodellierung}{0}}}
\@writefile{nav}{\headcommand {\beamer@framepages {19}{20}}}
\@writefile{nav}{\headcommand {\slideentry {2}{1}{3}{21/21}{Datenmodellierung}{0}}}
\@writefile{nav}{\headcommand {\beamer@framepages {21}{21}}}
\@writefile{nav}{\headcommand {\slideentry {2}{1}{4}{22/22}{Datenmodellierung}{0}}}
\@writefile{nav}{\headcommand {\beamer@framepages {22}{22}}}
\@writefile{nav}{\headcommand {\slideentry {2}{1}{5}{23/23}{Datenmodellierung}{0}}}
\@writefile{nav}{\headcommand {\beamer@framepages {23}{23}}}
\@writefile{nav}{\headcommand {\slideentry {2}{1}{6}{24/24}{Datenmodellierung}{0}}}
\@writefile{nav}{\headcommand {\beamer@framepages {24}{24}}}
\@writefile{toc}{\beamer@subsectionintoc {2}{2}{Algorithmische Modellierung}{25}{0}{2}}
\@writefile{nav}{\headcommand {\beamer@subsectionentry {0}{2}{2}{25}{Algorithmische Modellierung}}\headcommand {\beamer@subsectionpages {18}{24}}}
\@writefile{nav}{\headcommand {\slideentry {2}{2}{1}{25/29}{Algorithmische Modellierung}{0}}}
\@writefile{nav}{\headcommand {\beamer@framepages {25}{29}}}
\@writefile{nav}{\headcommand {\slideentry {2}{2}{2}{30/30}{Algorithmische Modellierung}{0}}}
\@writefile{nav}{\headcommand {\beamer@framepages {30}{30}}}
\@writefile{nav}{\headcommand {\slideentry {2}{2}{3}{31/31}{Algorithmische Modellierung}{0}}}
\@writefile{nav}{\headcommand {\beamer@framepages {31}{31}}}
\@writefile{nav}{\headcommand {\slideentry {2}{2}{4}{32/32}{Algorithmische Modellierung}{0}}}
\@writefile{nav}{\headcommand {\beamer@framepages {32}{32}}}
\@writefile{nav}{\headcommand {\slideentry {2}{2}{5}{33/33}{Algorithmische Modellierung}{0}}}
\@writefile{nav}{\headcommand {\beamer@framepages {33}{33}}}
\@writefile{nav}{\headcommand {\slideentry {2}{2}{6}{34/34}{Algorithmische Modellierung}{0}}}
\@writefile{nav}{\headcommand {\beamer@framepages {34}{34}}}
\@writefile{nav}{\headcommand {\slideentry {2}{2}{7}{35/35}{Algorithmische Modellierung}{0}}}
\@writefile{nav}{\headcommand {\beamer@framepages {35}{35}}}
\@writefile{nav}{\headcommand {\slideentry {2}{2}{8}{36/36}{Algorithmische Modellierung}{0}}}
\@writefile{nav}{\headcommand {\beamer@framepages {36}{36}}}
\@writefile{nav}{\headcommand {\slideentry {2}{2}{9}{37/37}{Algorithmische Modellierung}{0}}}
\@writefile{nav}{\headcommand {\beamer@framepages {37}{37}}}
\@writefile{nav}{\headcommand {\slideentry {2}{2}{10}{38/38}{Algorithmische Modellierung}{0}}}
\@writefile{nav}{\headcommand {\beamer@framepages {38}{38}}}
\@writefile{nav}{\headcommand {\slideentry {2}{2}{11}{39/39}{Algorithmische Modellierung}{0}}}
\@writefile{nav}{\headcommand {\beamer@framepages {39}{39}}}
\@writefile{nav}{\headcommand {\slideentry {2}{2}{12}{40/40}{Algorithmische Modellierung}{0}}}
\@writefile{nav}{\headcommand {\beamer@framepages {40}{40}}}
\@writefile{nav}{\headcommand {\slideentry {2}{2}{13}{41/41}{Algorithmische Modellierung}{0}}}
\@writefile{nav}{\headcommand {\beamer@framepages {41}{41}}}
\@writefile{nav}{\headcommand {\slideentry {2}{2}{14}{42/42}{Algorithmische Modellierung}{0}}}
\@writefile{nav}{\headcommand {\beamer@framepages {42}{42}}}
\@writefile{toc}{\beamer@sectionintoc {3}{Neuronale Netze}{43}{0}{3}}
\@writefile{nav}{\headcommand {\sectionentry {3}{Neuronale Netze}{43}{Neuronale Netze}{0}}}
\@writefile{nav}{\headcommand {\beamer@sectionpages {3}{42}}}
\@writefile{nav}{\headcommand {\beamer@subsectionpages {25}{42}}}
\@writefile{nav}{\headcommand {\slideentry {3}{0}{1}{43/43}{}{0}}}
\@writefile{nav}{\headcommand {\beamer@framepages {43}{43}}}
\@writefile{nav}{\headcommand {\slideentry {3}{0}{2}{44/44}{}{0}}}
\@writefile{nav}{\headcommand {\beamer@framepages {44}{44}}}
\@writefile{nav}{\headcommand {\slideentry {3}{0}{3}{45/45}{}{0}}}
\@writefile{nav}{\headcommand {\beamer@framepages {45}{45}}}
\@writefile{nav}{\headcommand {\slideentry {3}{0}{4}{46/46}{}{0}}}
\@writefile{nav}{\headcommand {\beamer@framepages {46}{46}}}
\@writefile{nav}{\headcommand {\slideentry {3}{0}{5}{47/47}{}{0}}}
\@writefile{nav}{\headcommand {\beamer@framepages {47}{47}}}
\@writefile{nav}{\headcommand {\slideentry {3}{0}{6}{48/48}{}{0}}}
\@writefile{nav}{\headcommand {\beamer@framepages {48}{48}}}
\@writefile{nav}{\headcommand {\slideentry {3}{0}{7}{49/49}{}{0}}}
\@writefile{nav}{\headcommand {\beamer@framepages {49}{49}}}
\@writefile{nav}{\headcommand {\slideentry {3}{0}{8}{50/50}{}{0}}}
\@writefile{nav}{\headcommand {\beamer@framepages {50}{50}}}
\@writefile{nav}{\headcommand {\slideentry {3}{0}{9}{51/51}{}{0}}}
\@writefile{nav}{\headcommand {\beamer@framepages {51}{51}}}
\@writefile{nav}{\headcommand {\slideentry {3}{0}{10}{52/52}{}{0}}}
\@writefile{nav}{\headcommand {\beamer@framepages {52}{52}}}
\@writefile{nav}{\headcommand {\slideentry {3}{0}{11}{53/53}{}{0}}}
\@writefile{nav}{\headcommand {\beamer@framepages {53}{53}}}
\@writefile{nav}{\headcommand {\slideentry {3}{0}{12}{54/54}{}{0}}}
\@writefile{nav}{\headcommand {\beamer@framepages {54}{54}}}
\@writefile{nav}{\headcommand {\slideentry {3}{0}{13}{55/55}{}{0}}}
\@writefile{nav}{\headcommand {\beamer@framepages {55}{55}}}
\@writefile{nav}{\headcommand {\beamer@partpages {1}{55}}}
\@writefile{nav}{\headcommand {\beamer@subsectionpages {43}{55}}}
\@writefile{nav}{\headcommand {\beamer@sectionpages {43}{55}}}
\@writefile{nav}{\headcommand {\beamer@documentpages {55}}}
\@writefile{nav}{\headcommand {\def \inserttotalframenumber {40}}}
